<?xml version="1.0" standalone="no"?>
<!DOCTYPE svg PUBLIC "-//W3C//DTD SVG 20010904//EN"
 "http://www.w3.org/TR/2001/REC-SVG-20010904/DTD/svg10.dtd">
<svg version="1.0" xmlns="http://www.w3.org/2000/svg"
 width="700.000000pt" height="700.000000pt" viewBox="0 0 700.000000 700.000000"
 preserveAspectRatio="xMidYMid meet">
<metadata>
Created by potrace 1.11, written by Peter Selinger 2001-2013
</metadata>
<g transform="translate(0.000000,700.000000) scale(0.100000,-0.100000)"
fill="#000000" stroke="none">
<path d="M6159 6613 c-177 -214 -325 -390 -328 -393 -3 -3 -35 -41 -71 -85
-35 -44 -67 -82 -70 -85 -3 -3 -138 -165 -300 -360 -162 -195 -297 -357 -300
-360 -3 -3 -35 -41 -70 -85 -36 -44 -68 -82 -71 -85 -3 -3 -61 -72 -130 -155
-68 -82 -134 -161 -146 -175 -11 -14 -204 -245 -428 -515 -224 -269 -419 -503
-434 -520 -14 -16 -44 -52 -66 -80 -47 -58 -76 -93 -90 -109 -12 -12 -98 -116
-160 -191 -22 -27 -67 -81 -100 -120 -33 -39 -78 -93 -100 -120 -22 -27 -56
-67 -75 -90 -19 -23 -53 -63 -75 -90 -22 -27 -74 -90 -116 -139 -41 -50 -126
-152 -188 -226 -62 -74 -141 -169 -176 -212 -36 -42 -97 -116 -137 -165 -39
-48 -74 -90 -78 -93 -7 -6 -99 -116 -150 -180 -31 -39 -124 -150 -183 -220
-12 -14 -154 -185 -317 -380 -162 -195 -302 -364 -312 -375 -90 -105 -828
-996 -828 -1000 0 -3 141 -5 313 -5 l314 0 159 192 c87 105 164 196 169 202 6
6 28 34 50 61 22 28 42 52 46 55 3 3 117 140 254 305 137 165 252 302 255 305
3 3 82 97 175 210 93 113 177 214 186 225 108 129 187 224 201 240 9 11 112
135 228 275 117 140 229 275 250 300 21 25 74 88 117 140 43 52 88 106 100
120 12 14 83 99 158 190 76 91 154 185 175 210 21 25 99 119 175 210 75 91
145 175 155 187 10 12 213 255 450 540 238 285 440 528 450 540 10 12 186 223
391 470 205 246 375 450 379 453 3 3 24 27 45 55 22 27 45 55 50 61 18 20 90
106 254 304 89 107 170 204 179 215 36 42 419 504 486 585 39 47 73 87 76 90
3 3 27 31 53 63 46 57 47 61 47 128 l0 69 -259 0 -260 0 -322 -387z"/>
<path d="M6959 6268 c-32 -38 -345 -415 -438 -527 -20 -24 -43 -51 -51 -61 -8
-10 -31 -37 -51 -61 -118 -142 -564 -678 -582 -699 -35 -41 -268 -320 -316
-380 -25 -30 -55 -66 -67 -80 -12 -14 -61 -72 -109 -130 -48 -58 -104 -125
-125 -150 -21 -25 -465 -558 -987 -1185 -522 -627 -958 -1151 -970 -1165 -20
-24 -1141 -1370 -1401 -1682 l-122 -148 277 0 278 1 170 206 c169 204 186 225
228 273 12 14 42 50 67 80 25 30 53 64 62 75 9 11 45 54 79 95 34 41 79 95
100 120 20 25 76 92 124 150 48 58 107 129 132 158 25 29 64 76 87 105 22 29
43 54 47 57 3 3 75 88 159 190 84 102 156 187 159 190 3 3 35 41 71 85 35 44
67 82 70 85 3 3 71 84 150 180 80 96 155 186 167 200 16 19 580 697 1131 1359
29 35 387 465 850 1020 20 24 86 103 145 175 60 72 119 142 130 156 12 14 42
50 67 80 25 30 47 57 50 60 3 3 37 43 75 90 38 47 74 90 80 96 22 25 97 115
199 237 l106 128 0 329 c0 182 -1 330 -3 330 -1 0 -18 -19 -38 -42z"/>
<path d="M6952 4953 c-22 -27 -56 -68 -77 -93 -79 -96 -110 -134 -120 -144 -6
-6 -30 -36 -55 -66 -25 -30 -55 -66 -66 -80 -21 -24 -958 -1149 -1032 -1240
-20 -24 -66 -78 -100 -120 -82 -97 -84 -99 -172 -205 -41 -49 -82 -99 -92
-110 -9 -11 -202 -243 -428 -515 -227 -272 -429 -515 -450 -540 -67 -80 -254
-304 -295 -354 -61 -74 -403 -484 -451 -541 -23 -27 -148 -178 -279 -335 -130
-157 -244 -294 -253 -305 -10 -11 -51 -60 -92 -110 -41 -49 -77 -92 -80 -95
-3 -3 -22 -26 -43 -52 l-38 -48 235 0 234 0 244 292 c134 161 253 304 265 318
11 14 294 354 628 755 334 402 627 753 650 780 23 28 147 176 275 330 128 154
242 291 254 305 12 14 46 54 75 90 66 80 125 151 171 205 19 23 51 61 70 85
19 24 40 48 45 54 6 6 41 49 80 96 38 47 85 103 105 126 19 22 64 76 100 120
35 43 67 81 70 84 3 3 29 34 59 70 82 100 110 134 236 285 65 77 132 158 150
180 84 102 201 241 213 253 9 10 12 83 12 293 0 153 -2 279 -4 279 -2 0 -22
-21 -44 -47z"/>
<path d="M6825 3494 c-243 -294 -511 -615 -586 -704 -21 -25 -88 -106 -149
-180 -62 -74 -129 -155 -150 -180 -21 -25 -313 -376 -650 -780 -336 -404 -620
-744 -629 -756 -33 -39 -716 -859 -730 -877 -13 -16 -2 -17 180 -17 l194 0
350 421 c193 232 364 438 381 458 35 41 777 933 833 1000 40 50 91 110 106
127 15 17 46 55 90 109 22 28 45 55 51 60 6 6 28 32 50 60 21 27 46 56 54 65
8 9 31 36 51 61 75 91 344 414 349 419 3 3 37 43 75 90 38 47 77 94 87 105 9
11 62 74 117 140 l101 120 0 233 c0 127 -1 232 -2 231 -2 0 -79 -92 -173 -205z"/>
<path d="M6960 2350 c-19 -25 -37 -47 -40 -50 -3 -3 -41 -48 -84 -100 -43 -52
-88 -106 -100 -120 -11 -14 -41 -50 -66 -80 -57 -70 -82 -100 -95 -114 -6 -6
-55 -65 -109 -131 -55 -66 -102 -122 -106 -125 -3 -3 -17 -21 -32 -40 -15 -19
-38 -48 -52 -63 -13 -16 -40 -47 -58 -69 -18 -23 -38 -46 -43 -52 -6 -6 -75
-90 -155 -186 -80 -96 -153 -184 -162 -195 -9 -11 -90 -108 -179 -215 -89
-107 -181 -217 -204 -245 -24 -27 -123 -147 -221 -265 -98 -118 -181 -217
-184 -220 -3 -3 -19 -22 -34 -42 l-28 -38 153 0 154 1 45 57 c58 73 61 76 172
208 51 61 109 130 128 154 19 24 40 48 45 54 6 6 40 47 75 91 36 44 70 85 76
90 6 6 64 75 129 155 66 80 124 150 130 156 13 16 96 115 316 379 100 121 199
240 220 265 21 25 108 129 194 233 l155 187 -2 182 -3 182 -35 -44z"/>
<path d="M6970 1053 c-20 -23 -154 -183 -231 -278 -10 -11 -34 -41 -55 -66
-22 -25 -57 -67 -79 -94 -22 -26 -51 -61 -65 -78 -14 -16 -106 -127 -206 -247
-99 -119 -192 -230 -207 -246 -15 -16 -27 -32 -27 -36 0 -5 49 -8 108 -8 l108
0 342 411 343 410 -3 131 -3 130 -25 -29z"/>
</g>
</svg>
